Deleting sphere object at 0x7f2a62bff920
--Deleting material object at 0x7f2a62bff970
Deleting sphere object at 0x7f2a62bffe20
--Deleting material object at 0x7f2a62bffe70
Deleting sphere object at 0x7f2a62bffd30
--Deleting material object at 0x7f2a62bffd80
Deleting moving_sphere object at 0x7f2a62bfadb0
--Deleting material object at 0x7f2a62bfae00
==PROF== Profiling "free_scene" - 4: 0%....50%....100% - 14 passes
==PROF== Disconnected from process 8094
[8094] main@127.0.0.1
  populate_scene_balls(hitable_object**, hitable_list**, camera**, curandStateXORWOW*, float*), 2023-Dec-13 13:46:21, Context 1, Stream 7
    Section: Command line profiler metrics
    ---------------------------------------------------------------------- --------------- ------------------------------
    dram__bytes_read.sum                                                             Kbyte                          47.36
    dram__bytes_read.sum.per_second                                           Mbyte/second                          61.02
    dram__bytes_write.sum                                                             byte                              0
    dram__bytes_write.sum.per_second                                           byte/second                              0
    dram__sectors_read.sum                                                          sector                          1,480
    dram__sectors_write.sum                                                         sector                              0
    l1tex__f_tex2sm_cycles_active.avg.pct_of_peak_sustained_elapsed                      %                              0
    l1tex__lsu_writeback_active.avg.pct_of_peak_sustained_active                         %                           1.08
    l1tex__lsu_writeback_active.sum                                                  cycle                          6,235
    l1tex__t_bytes_pipe_lsu_mem_global_op_ld.sum.per_second                   Mbyte/second                          84.81
    l1tex__t_bytes_pipe_lsu_mem_global_op_st.sum                                     Kbyte                          41.70
    l1tex__t_bytes_pipe_lsu_mem_global_op_st.sum.per_second                   Mbyte/second                          53.72
    l1tex__t_bytes_pipe_lsu_mem_local_op_ld.sum.per_second                    Mbyte/second                         139.23
    l1tex__t_requests_pipe_lsu_mem_global_op_atom.sum                              request                            315
    l1tex__t_requests_pipe_lsu_mem_global_op_ld.sum                                request                          2,057
    l1tex__t_requests_pipe_lsu_mem_global_op_red.sum                               request                             44
    l1tex__t_requests_pipe_lsu_mem_global_op_st.sum                                request                          1,303
    l1tex__t_requests_pipe_lsu_mem_local_op_ld.sum                                 request                          3,377
    l1tex__t_requests_pipe_lsu_mem_local_op_st.sum                                 request                          4,203
    l1tex__t_requests_pipe_tex_mem_surface_op_atom.sum                             request                              0
    l1tex__t_requests_pipe_tex_mem_surface_op_ld.sum                               request                              0
    l1tex__t_requests_pipe_tex_mem_surface_op_red.sum                              request                              0
    l1tex__t_requests_pipe_tex_mem_surface_op_st.sum                               request                              0
    l1tex__t_requests_pipe_tex_mem_texture.sum                                     request                              0
    l1tex__t_sector_hit_rate.pct                                                         %                          82.69
    l1tex__t_sectors_pipe_lsu_mem_global_op.sum                                                                   (!) n/a
    l1tex__t_sectors_pipe_lsu_mem_global_op_ld.sum                                  sector                          2,057
    l1tex__t_sectors_pipe_lsu_mem_global_op_lookup_hit.sum                                                        (!) n/a
    l1tex__t_sectors_pipe_lsu_mem_local_op_ld.sum                                   sector                          3,377
    l1tex__t_sectors_pipe_lsu_mem_local_op_st.sum                                   sector                          4,203
    l1tex__t_sectors_pipe_lsu_mem_local_op_st.sum.per_second                sector/usecond                           5.42
    l1tex__t_set_accesses_pipe_lsu_mem_global_op_atom.sum                                                             315
    l1tex__t_set_accesses_pipe_lsu_mem_global_op_red.sum                                                               44
    l1tex__t_set_accesses_pipe_tex_mem_surface_op_atom.sum                                                              0
    l1tex__t_set_accesses_pipe_tex_mem_surface_op_red.sum                                                               0
    l1tex__tex_writeback_active.avg.pct_of_peak_sustained_active                         %                              0
    l1tex__texin_sm2tex_req_cycles_active.avg.pct_of_peak_sustained_elapse               %                           0.00
    d                                                                                                                    
    lts__t_bytes_equiv_l1sectormiss_pipe_lsu_mem_global_op_ld.sum                    Kbyte                          39.36
    lts__t_bytes_equiv_l1sectormiss_pipe_lsu_mem_global_op_st.sum                    Kbyte                           5.76
    lts__t_bytes_equiv_l1sectormiss_pipe_lsu_mem_surface_op_st.sum                                                (!) n/a
    lts__t_bytes_equiv_l1sectormiss_pipe_tex_mem_surface_op_ld.sum                    byte                              0
    lts__t_sector_hit_rate.pct                                                           %                          84.06
    lts__t_sector_op_read_hit_rate.pct                                                   %                           6.12
    lts__t_sector_op_write_hit_rate.pct                                                  %                            100
    lts__t_sectors.avg.pct_of_peak_sustained_elapsed                                     %                           0.02
    lts__t_sectors_aperture_sysmem_op_read.sum                                      sector                              0
    lts__t_sectors_aperture_sysmem_op_read.sum.per_second                    sector/second                              0
    lts__t_sectors_aperture_sysmem_op_write.sum                                     sector                              7
    lts__t_sectors_aperture_sysmem_op_write.sum.per_second                  sector/msecond                           9.02
    lts__t_sectors_op_read.sum                                                      sector                         21,019
    lts__t_sectors_op_read.sum.per_second                                   sector/usecond                          27.08
    lts__t_sectors_op_write.sum                                                     sector                          7,574
    lts__t_sectors_op_write.sum.per_second                                  sector/usecond                           9.76
    lts__t_sectors_srcunit_l1_op_atom.sum                                           sector                              0
    lts__t_sectors_srcunit_l1_op_atom.sum.per_second                         sector/second                              0
    lts__t_sectors_srcunit_tex_op_read.sum                                          sector                          1,230
    lts__t_sectors_srcunit_tex_op_read.sum.per_second                       sector/usecond                           1.58
    sm__mio2rf_writeback_active.avg.pct_of_peak_sustained_elapsed                        %                           0.01
    sm__pipe_tensor_cycles_active.avg.pct_of_peak_sustained_active                       %                              0
    sm__warps_active.avg.pct_of_peak_sustained_active                                    %                           1.56
    smsp__average_inst_executed_per_warp.ratio                                   inst/warp                         47,512
    smsp__cycles_active.avg.pct_of_peak_sustained_elapsed                                %                           0.23
    smsp__inst_executed.avg.per_cycle_active                                    inst/cycle                           0.08
    smsp__inst_executed.sum                                                           inst                         47,512
    smsp__inst_executed_op_global_atom.sum                                                                        (!) n/a
    smsp__inst_executed_op_global_ld.sum                                              inst                            369
    smsp__inst_executed_op_global_st.sum                                              inst                             64
    smsp__inst_executed_op_local_ld.sum                                               inst                          3,241
    smsp__inst_executed_op_shared_atom.sum                                            inst                              0
    smsp__inst_executed_op_shared_atom_dot_alu.sum                                    inst                              0
    smsp__inst_executed_op_shared_atom_dot_cas.sum                                    inst                              0
    smsp__inst_executed_op_shared_ld.avg.pct_of_peak_sustained_elapsed                   %                              0
    smsp__inst_executed_op_shared_ld.sum                                              inst                              0
    smsp__inst_executed_op_shared_ld.sum.per_second                            inst/second                              0
    smsp__inst_executed_op_shared_st.avg.pct_of_peak_sustained_elapsed                   %                              0
    smsp__inst_executed_op_shared_st.sum                                              inst                              0
    smsp__inst_executed_op_shared_st.sum.per_second                            inst/second                              0
    smsp__inst_executed_op_surface_atom.sum                                           inst                              0
    smsp__inst_executed_op_surface_ld.sum                                             inst                              0
    smsp__inst_executed_op_surface_red.sum                                            inst                              0
    smsp__inst_executed_op_surface_st.sum                                             inst                              0
    smsp__inst_executed_op_texture.sum                                                inst                              0
    smsp__inst_executed_pipe_adu.sum                                                  inst                            365
    smsp__inst_executed_pipe_cbu.sum                                                  inst                          7,486
    smsp__inst_executed_pipe_fp16.sum                                                 inst                              0
    smsp__inst_executed_pipe_fp64.avg.pct_of_peak_sustained_active                       %                              0
    smsp__inst_executed_pipe_lsu.avg.pct_of_peak_sustained_active                        %                           1.95
    smsp__inst_executed_pipe_tex.avg.pct_of_peak_sustained_active                        %                              0
    smsp__inst_issued.avg.per_cycle_active                                      inst/cycle                           0.08
    smsp__inst_issued.sum                                                             inst                         47,964
    smsp__issue_active.avg.pct_of_peak_sustained_active                                  %                           8.23
    smsp__sass_thread_inst_executed_op_control_pred_on.sum                            inst                            917
    smsp__sass_thread_inst_executed_op_dadd_pred_on.sum                               inst                              0
    smsp__sass_thread_inst_executed_op_dfma_pred_on.sum                               inst                              0
    smsp__sass_thread_inst_executed_op_dmul_pred_on.sum                               inst                              0
    smsp__sass_thread_inst_executed_op_fadd_pred_on.sum                               inst                            269
    smsp__sass_thread_inst_executed_op_ffma_pred_on.sum                               inst                             43
    smsp__sass_thread_inst_executed_op_fmul_pred_on.sum                               inst                             45
    smsp__sass_thread_inst_executed_op_fp16_pred_on.sum                               inst                              0
    smsp__sass_thread_inst_executed_op_fp32_pred_on.sum                               inst                            479
    smsp__sass_thread_inst_executed_op_fp64_pred_on.sum                               inst                              0
    smsp__sass_thread_inst_executed_op_hadd_pred_on.sum                               inst                              0
    smsp__sass_thread_inst_executed_op_hfma_pred_on.sum                               inst                              0
    smsp__sass_thread_inst_executed_op_hmul_pred_on.sum                               inst                              0
    smsp__sass_thread_inst_executed_op_integer_pred_on.sum                            inst                          4,281
    smsp__sass_thread_inst_executed_op_inter_thread_communication_pred_on.            inst                              0
    sum                                                                                                                  
    smsp__sass_thread_inst_executed_op_memory_pred_on.sum                             inst                          3,188
    smsp__sass_thread_inst_executed_op_misc_pred_on.sum                               inst                            464
    smsp__sass_thread_inst_executed_op_mufu_pred_on.sum                                                           (!) n/a
    smsp__thread_inst_executed_per_inst_executed.pct                                     %                           3.12
    smsp__thread_inst_executed_per_inst_executed.ratio                                                                  1
    smsp__warp_issue_stalled_drain_miss_per_warp_active.pct                                                       (!) n/a
    smsp__warp_issue_stalled_imc_miss_per_warp_active.pct                                %                           0.23
    smsp__warp_issue_stalled_long_scoreboard_miss_per_warp_active.pct                                             (!) n/a
    smsp__warp_issue_stalled_misc_membar_per_warp_active.pct                                                      (!) n/a
    smsp__warp_issue_stalled_misc_mio_throttle_per_warp_active.pct                                                (!) n/a
    smsp__warp_issue_stalled_misc_miss_per_warp_active.pct                                                        (!) n/a
    smsp__warp_issue_stalled_misc_sleeping_per_warp_active.pct                                                    (!) n/a
    smsp__warp_issue_stalled_misc_tex_throttle_per_warp_active.pct                                                (!) n/a
    smsp__warp_issue_stalled_no_instruction_miss_per_warp_active.pct                                              (!) n/a
    smsp__warp_issue_stalled_short_scoreboard_miss_per_warp_active.pct                                            (!) n/a
    smsp__warps_eligible.sum.per_cycle_active                                         warp                          35.56
    ---------------------------------------------------------------------- --------------- ------------------------------

  init_rand_state(curandStateXORWOW*, int, int), 2023-Dec-13 13:46:22, Context 1, Stream 7
    Section: Command line profiler metrics
    ---------------------------------------------------------------------- --------------- ------------------------------
    dram__bytes_read.sum                                                             Mbyte                          22.32
    dram__bytes_read.sum.per_second                                           Gbyte/second                         152.93
    dram__bytes_write.sum                                                            Mbyte                          29.49
    dram__bytes_write.sum.per_second                                          Gbyte/second                         202.02
    dram__sectors_read.sum                                                          sector                        697,492
    dram__sectors_write.sum                                                         sector                        921,408
    l1tex__f_tex2sm_cycles_active.avg.pct_of_peak_sustained_elapsed                      %                              0
    l1tex__lsu_writeback_active.avg.pct_of_peak_sustained_active                         %                           0.41
    l1tex__lsu_writeback_active.sum                                                  cycle                         46,208
    l1tex__t_bytes_pipe_lsu_mem_global_op_ld.sum.per_second                    byte/second                              0
    l1tex__t_bytes_pipe_lsu_mem_global_op_st.sum                                     Mbyte                         138.24
    l1tex__t_bytes_pipe_lsu_mem_global_op_st.sum.per_second                   Gbyte/second                         947.16
    l1tex__t_bytes_pipe_lsu_mem_local_op_ld.sum.per_second                     byte/second                              0
    l1tex__t_requests_pipe_lsu_mem_global_op_atom.sum                              request                              0
    l1tex__t_requests_pipe_lsu_mem_global_op_ld.sum                                request                              0
    l1tex__t_requests_pipe_lsu_mem_global_op_red.sum                               request                              0
    l1tex__t_requests_pipe_lsu_mem_global_op_st.sum                                request                        136,800
    l1tex__t_requests_pipe_lsu_mem_local_op_ld.sum                                 request                              0
    l1tex__t_requests_pipe_lsu_mem_local_op_st.sum                                 request                              0
    l1tex__t_requests_pipe_tex_mem_surface_op_atom.sum                             request                              0
    l1tex__t_requests_pipe_tex_mem_surface_op_ld.sum                               request                              0
    l1tex__t_requests_pipe_tex_mem_surface_op_red.sum                              request                              0
    l1tex__t_requests_pipe_tex_mem_surface_op_st.sum                               request                              0
    l1tex__t_requests_pipe_tex_mem_texture.sum                                     request                              0
    l1tex__t_sector_hit_rate.pct                                                         %                          83.27
    l1tex__t_sectors_pipe_lsu_mem_global_op.sum                                                                   (!) n/a
    l1tex__t_sectors_pipe_lsu_mem_global_op_ld.sum                                  sector                              0
    l1tex__t_sectors_pipe_lsu_mem_global_op_lookup_hit.sum                                                        (!) n/a
    l1tex__t_sectors_pipe_lsu_mem_local_op_ld.sum                                   sector                              0
    l1tex__t_sectors_pipe_lsu_mem_local_op_st.sum                                   sector                              0
    l1tex__t_sectors_pipe_lsu_mem_local_op_st.sum.per_second                 sector/second                              0
    l1tex__t_set_accesses_pipe_lsu_mem_global_op_atom.sum                                                               0
    l1tex__t_set_accesses_pipe_lsu_mem_global_op_red.sum                                                                0
    l1tex__t_set_accesses_pipe_tex_mem_surface_op_atom.sum                                                              0
    l1tex__t_set_accesses_pipe_tex_mem_surface_op_red.sum                                                               0
    l1tex__tex_writeback_active.avg.pct_of_peak_sustained_active                         %                              0
    l1tex__texin_sm2tex_req_cycles_active.avg.pct_of_peak_sustained_elapse               %                           0.00
    d                                                                                                                    
    lts__t_bytes_equiv_l1sectormiss_pipe_lsu_mem_global_op_ld.sum                     byte                              0
    lts__t_bytes_equiv_l1sectormiss_pipe_lsu_mem_global_op_st.sum                    Mbyte                          23.13
    lts__t_bytes_equiv_l1sectormiss_pipe_lsu_mem_surface_op_st.sum                                                (!) n/a
    lts__t_bytes_equiv_l1sectormiss_pipe_tex_mem_surface_op_ld.sum                    byte                              0
    lts__t_sector_hit_rate.pct                                                           %                          90.55
    lts__t_sector_op_read_hit_rate.pct                                                   %                          11.86
    lts__t_sector_op_write_hit_rate.pct                                                  %                          90.02
    lts__t_sectors.avg.pct_of_peak_sustained_elapsed                                     %                          40.91
    lts__t_sectors_aperture_sysmem_op_read.sum                                      sector                              0
    lts__t_sectors_aperture_sysmem_op_read.sum.per_second                    sector/second                              0
    lts__t_sectors_aperture_sysmem_op_write.sum                                     sector                              7
    lts__t_sectors_aperture_sysmem_op_write.sum.per_second                  sector/msecond                          47.96
    lts__t_sectors_op_read.sum                                                      sector                            902
    lts__t_sectors_op_read.sum.per_second                                   sector/usecond                           6.18
    lts__t_sectors_op_write.sum                                                     sector                      6,975,188
    lts__t_sectors_op_write.sum.per_second                                  sector/nsecond                          47.79
    lts__t_sectors_srcunit_l1_op_atom.sum                                           sector                              0
    lts__t_sectors_srcunit_l1_op_atom.sum.per_second                         sector/second                              0
    lts__t_sectors_srcunit_tex_op_read.sum                                          sector                              0
    lts__t_sectors_srcunit_tex_op_read.sum.per_second                        sector/second                              0
    sm__mio2rf_writeback_active.avg.pct_of_peak_sustained_elapsed                        %                           0.38
    sm__pipe_tensor_cycles_active.avg.pct_of_peak_sustained_active                       %                              0
    sm__warps_active.avg.pct_of_peak_sustained_active                                    %                          74.45
    smsp__average_inst_executed_per_warp.ratio                                   inst/warp                          35.66
    smsp__cycles_active.avg.pct_of_peak_sustained_elapsed                                %                          90.65
    smsp__inst_executed.avg.per_cycle_active                                    inst/cycle                           0.02
    smsp__inst_executed.sum                                                           inst                        823,840
    smsp__inst_executed_op_global_atom.sum                                                                        (!) n/a
    smsp__inst_executed_op_global_ld.sum                                              inst                              0
    smsp__inst_executed_op_global_st.sum                                              inst                        136,800
    smsp__inst_executed_op_local_ld.sum                                               inst                              0
    smsp__inst_executed_op_shared_atom.sum                                            inst                              0
    smsp__inst_executed_op_shared_atom_dot_alu.sum                                    inst                              0
    smsp__inst_executed_op_shared_atom_dot_cas.sum                                    inst                              0
    smsp__inst_executed_op_shared_ld.avg.pct_of_peak_sustained_elapsed                   %                              0
    smsp__inst_executed_op_shared_ld.sum                                              inst                              0
    smsp__inst_executed_op_shared_ld.sum.per_second                            inst/second                              0
    smsp__inst_executed_op_shared_st.avg.pct_of_peak_sustained_elapsed                   %                              0
    smsp__inst_executed_op_shared_st.sum                                              inst                              0
    smsp__inst_executed_op_shared_st.sum.per_second                            inst/second                              0
    smsp__inst_executed_op_surface_atom.sum                                           inst                              0
    smsp__inst_executed_op_surface_ld.sum                                             inst                              0
    smsp__inst_executed_op_surface_red.sum                                            inst                              0
    smsp__inst_executed_op_surface_st.sum                                             inst                              0
    smsp__inst_executed_op_texture.sum                                                inst                              0
    smsp__inst_executed_pipe_adu.sum                                                  inst                         46,208
    smsp__inst_executed_pipe_cbu.sum                                                  inst                         45,904
    smsp__inst_executed_pipe_fp16.sum                                                 inst                              0
    smsp__inst_executed_pipe_fp64.avg.pct_of_peak_sustained_active                       %                              0
    smsp__inst_executed_pipe_lsu.avg.pct_of_peak_sustained_active                        %                           0.42
    smsp__inst_executed_pipe_tex.avg.pct_of_peak_sustained_active                        %                              0
    smsp__inst_issued.avg.per_cycle_active                                      inst/cycle                           0.02
    smsp__inst_issued.sum                                                             inst                        846,245
    smsp__issue_active.avg.pct_of_peak_sustained_active                                  %                           1.92
    smsp__sass_thread_inst_executed_op_control_pred_on.sum                            inst                        739,328
    smsp__sass_thread_inst_executed_op_dadd_pred_on.sum                               inst                              0
    smsp__sass_thread_inst_executed_op_dfma_pred_on.sum                               inst                              0
    smsp__sass_thread_inst_executed_op_dmul_pred_on.sum                               inst                              0
    smsp__sass_thread_inst_executed_op_fadd_pred_on.sum                               inst                              0
    smsp__sass_thread_inst_executed_op_ffma_pred_on.sum                               inst                        720,000
    smsp__sass_thread_inst_executed_op_fmul_pred_on.sum                               inst                              0
    smsp__sass_thread_inst_executed_op_fp16_pred_on.sum                               inst                              0
    smsp__sass_thread_inst_executed_op_fp32_pred_on.sum                               inst                        720,000
    smsp__sass_thread_inst_executed_op_fp64_pred_on.sum                               inst                              0
    smsp__sass_thread_inst_executed_op_hadd_pred_on.sum                               inst                              0
    smsp__sass_thread_inst_executed_op_hfma_pred_on.sum                               inst                              0
    smsp__sass_thread_inst_executed_op_hmul_pred_on.sum                               inst                              0
    smsp__sass_thread_inst_executed_op_integer_pred_on.sum                            inst                     13,776,640
    smsp__sass_thread_inst_executed_op_inter_thread_communication_pred_on.            inst                              0
    sum                                                                                                                  
    smsp__sass_thread_inst_executed_op_memory_pred_on.sum                             inst                      4,320,000
    smsp__sass_thread_inst_executed_op_misc_pred_on.sum                               inst                      2,957,312
    smsp__sass_thread_inst_executed_op_mufu_pred_on.sum                                                           (!) n/a
    smsp__thread_inst_executed_per_inst_executed.pct                                     %                          99.05
    smsp__thread_inst_executed_per_inst_executed.ratio                                                              31.70
    smsp__warp_issue_stalled_drain_miss_per_warp_active.pct                                                       (!) n/a
    smsp__warp_issue_stalled_imc_miss_per_warp_active.pct                                %                           0.60
    smsp__warp_issue_stalled_long_scoreboard_miss_per_warp_active.pct                                             (!) n/a
    smsp__warp_issue_stalled_misc_membar_per_warp_active.pct                                                      (!) n/a
    smsp__warp_issue_stalled_misc_mio_throttle_per_warp_active.pct                                                (!) n/a
    smsp__warp_issue_stalled_misc_miss_per_warp_active.pct                                                        (!) n/a
    smsp__warp_issue_stalled_misc_sleeping_per_warp_active.pct                                                    (!) n/a
    smsp__warp_issue_stalled_misc_tex_throttle_per_warp_active.pct                                                (!) n/a
    smsp__warp_issue_stalled_no_instruction_miss_per_warp_active.pct                                              (!) n/a
    smsp__warp_issue_stalled_short_scoreboard_miss_per_warp_active.pct                                            (!) n/a
    smsp__warps_eligible.sum.per_cycle_active                                         warp                          30.37
    ---------------------------------------------------------------------- --------------- ------------------------------

  render(vec3*, int, int, hitable_list**, camera**, curandStateXORWOW*), 2023-Dec-13 13:47:02, Context 1, Stream 7
    Section: Command line profiler metrics
    ---------------------------------------------------------------------- --------------- ------------------------------
    dram__bytes_read.sum                                                             Gbyte                          45.98
    dram__bytes_read.sum.per_second                                           Gbyte/second                          46.40
    dram__bytes_write.sum                                                            Gbyte                          95.54
    dram__bytes_write.sum.per_second                                          Gbyte/second                          96.41
    dram__sectors_read.sum                                                          sector                  1,436,807,456
    dram__sectors_write.sum                                                         sector                  2,985,779,596
    l1tex__f_tex2sm_cycles_active.avg.pct_of_peak_sustained_elapsed                      %                              0
    l1tex__lsu_writeback_active.avg.pct_of_peak_sustained_active                         %                          20.41
    l1tex__lsu_writeback_active.sum                                                  cycle                  5,232,225,109
    l1tex__t_bytes_pipe_lsu_mem_global_op_ld.sum.per_second                   Gbyte/second                          71.79
    l1tex__t_bytes_pipe_lsu_mem_global_op_st.sum                                     Mbyte                          25.92
    l1tex__t_bytes_pipe_lsu_mem_global_op_st.sum.per_second                   Mbyte/second                          26.16
    l1tex__t_bytes_pipe_lsu_mem_local_op_ld.sum.per_second                    Gbyte/second                         293.02
    l1tex__t_requests_pipe_lsu_mem_global_op_atom.sum                              request                              0
    l1tex__t_requests_pipe_lsu_mem_global_op_ld.sum                                request                  1,611,119,249
    l1tex__t_requests_pipe_lsu_mem_global_op_red.sum                               request                              0
    l1tex__t_requests_pipe_lsu_mem_global_op_st.sum                                request                         68,400
    l1tex__t_requests_pipe_lsu_mem_local_op_ld.sum                                 request                  3,351,945,500
    l1tex__t_requests_pipe_lsu_mem_local_op_st.sum                                 request                  3,039,804,608
    l1tex__t_requests_pipe_tex_mem_surface_op_atom.sum                             request                              0
    l1tex__t_requests_pipe_tex_mem_surface_op_ld.sum                               request                              0
    l1tex__t_requests_pipe_tex_mem_surface_op_red.sum                              request                              0
    l1tex__t_requests_pipe_tex_mem_surface_op_st.sum                               request                              0
    l1tex__t_requests_pipe_tex_mem_texture.sum                                     request                              0
    l1tex__t_sector_hit_rate.pct                                                         %                          75.84
    l1tex__t_sectors_pipe_lsu_mem_global_op.sum                                                                   (!) n/a
    l1tex__t_sectors_pipe_lsu_mem_global_op_ld.sum                                  sector                  2,223,389,070
    l1tex__t_sectors_pipe_lsu_mem_global_op_lookup_hit.sum                                                        (!) n/a
    l1tex__t_sectors_pipe_lsu_mem_local_op_ld.sum                                   sector                  9,074,463,097
    l1tex__t_sectors_pipe_lsu_mem_local_op_st.sum                                   sector                  8,286,636,631
    l1tex__t_sectors_pipe_lsu_mem_local_op_st.sum.per_second                sector/nsecond                           8.36
    l1tex__t_set_accesses_pipe_lsu_mem_global_op_atom.sum                                                               0
    l1tex__t_set_accesses_pipe_lsu_mem_global_op_red.sum                                                                0
    l1tex__t_set_accesses_pipe_tex_mem_surface_op_atom.sum                                                              0
    l1tex__t_set_accesses_pipe_tex_mem_surface_op_red.sum                                                               0
    l1tex__tex_writeback_active.avg.pct_of_peak_sustained_active                         %                              0
    l1tex__texin_sm2tex_req_cycles_active.avg.pct_of_peak_sustained_elapse               %                           0.00
    d                                                                                                                    
    lts__t_bytes_equiv_l1sectormiss_pipe_lsu_mem_global_op_ld.sum                    Mbyte                         812.91
    lts__t_bytes_equiv_l1sectormiss_pipe_lsu_mem_global_op_st.sum                    Mbyte                           8.64
    lts__t_bytes_equiv_l1sectormiss_pipe_lsu_mem_surface_op_st.sum                                                (!) n/a
    lts__t_bytes_equiv_l1sectormiss_pipe_tex_mem_surface_op_ld.sum                    byte                              0
    lts__t_sector_hit_rate.pct                                                           %                          88.94
    lts__t_sector_op_read_hit_rate.pct                                                   %                          49.32
    lts__t_sector_op_write_hit_rate.pct                                                  %                          95.30
    lts__t_sectors.avg.pct_of_peak_sustained_elapsed                                     %                          13.45
    lts__t_sectors_aperture_sysmem_op_read.sum                                      sector                              0
    lts__t_sectors_aperture_sysmem_op_read.sum.per_second                    sector/second                              0
    lts__t_sectors_aperture_sysmem_op_write.sum                                     sector                             67
    lts__t_sectors_aperture_sysmem_op_write.sum.per_second                   sector/second                          67.61
    lts__t_sectors_op_read.sum                                                      sector                  2,393,470,505
    lts__t_sectors_op_read.sum.per_second                                   sector/nsecond                           2.42
    lts__t_sectors_op_write.sum                                                     sector                 13,125,415,029
    lts__t_sectors_op_write.sum.per_second                                  sector/nsecond                          13.24
    lts__t_sectors_srcunit_l1_op_atom.sum                                           sector                              0
    lts__t_sectors_srcunit_l1_op_atom.sum.per_second                         sector/second                              0
    lts__t_sectors_srcunit_tex_op_read.sum                                          sector                  1,871,831,371
    lts__t_sectors_srcunit_tex_op_read.sum.per_second                       sector/nsecond                           1.89
    sm__mio2rf_writeback_active.avg.pct_of_peak_sustained_elapsed                        %                           3.36
    sm__pipe_tensor_cycles_active.avg.pct_of_peak_sustained_active                       %                              0
    sm__warps_active.avg.pct_of_peak_sustained_active                                    %                          37.41
    smsp__average_inst_executed_per_warp.ratio                                   inst/warp                   1,676,193.84
    smsp__cycles_active.avg.pct_of_peak_sustained_elapsed                                %                          28.89
    smsp__inst_executed.avg.per_cycle_active                                    inst/cycle                           0.40
    smsp__inst_executed.sum                                                           inst                 38,726,782,442
    smsp__inst_executed_op_global_atom.sum                                                                        (!) n/a
    smsp__inst_executed_op_global_ld.sum                                              inst                     10,806,694
    smsp__inst_executed_op_global_st.sum                                              inst                         68,400
    smsp__inst_executed_op_local_ld.sum                                               inst                  2,247,127,595
    smsp__inst_executed_op_shared_atom.sum                                            inst                              0
    smsp__inst_executed_op_shared_atom_dot_alu.sum                                    inst                              0
    smsp__inst_executed_op_shared_atom_dot_cas.sum                                    inst                              0
    smsp__inst_executed_op_shared_ld.avg.pct_of_peak_sustained_elapsed                   %                              0
    smsp__inst_executed_op_shared_ld.sum                                              inst                              0
    smsp__inst_executed_op_shared_ld.sum.per_second                            inst/second                              0
    smsp__inst_executed_op_shared_st.avg.pct_of_peak_sustained_elapsed                   %                              0
    smsp__inst_executed_op_shared_st.sum                                              inst                              0
    smsp__inst_executed_op_shared_st.sum.per_second                            inst/second                              0
    smsp__inst_executed_op_surface_atom.sum                                           inst                              0
    smsp__inst_executed_op_surface_ld.sum                                             inst                              0
    smsp__inst_executed_op_surface_red.sum                                            inst                              0
    smsp__inst_executed_op_surface_st.sum                                             inst                              0
    smsp__inst_executed_op_texture.sum                                                inst                              0
    smsp__inst_executed_pipe_adu.sum                                                  inst                    214,010,138
    smsp__inst_executed_pipe_cbu.sum                                                  inst                  4,391,874,038
    smsp__inst_executed_pipe_fp16.sum                                                 inst                              0
    smsp__inst_executed_pipe_fp64.avg.pct_of_peak_sustained_active                       %                           0.72
    smsp__inst_executed_pipe_lsu.avg.pct_of_peak_sustained_active                        %                           7.64
    smsp__inst_executed_pipe_tex.avg.pct_of_peak_sustained_active                        %                              0
    smsp__inst_issued.avg.per_cycle_active                                      inst/cycle                           0.41
    smsp__inst_issued.sum                                                             inst                 38,922,366,760
    smsp__issue_active.avg.pct_of_peak_sustained_active                                  %                          40.55
    smsp__sass_thread_inst_executed_op_control_pred_on.sum                            inst                 61,916,854,435
    smsp__sass_thread_inst_executed_op_dadd_pred_on.sum                               inst                    348,273,163
    smsp__sass_thread_inst_executed_op_dfma_pred_on.sum                               inst                  1,136,282,755
    smsp__sass_thread_inst_executed_op_dmul_pred_on.sum                               inst                    227,256,584
    smsp__sass_thread_inst_executed_op_fadd_pred_on.sum                               inst                 28,952,044,930
    smsp__sass_thread_inst_executed_op_ffma_pred_on.sum                               inst                 29,538,564,760
    smsp__sass_thread_inst_executed_op_fmul_pred_on.sum                               inst                 20,623,868,960
    smsp__sass_thread_inst_executed_op_fp16_pred_on.sum                               inst                              0
    smsp__sass_thread_inst_executed_op_fp32_pred_on.sum                               inst                117,871,920,082
    smsp__sass_thread_inst_executed_op_fp64_pred_on.sum                               inst                  1,711,812,535
    smsp__sass_thread_inst_executed_op_hadd_pred_on.sum                               inst                              0
    smsp__sass_thread_inst_executed_op_hfma_pred_on.sum                               inst                              0
    smsp__sass_thread_inst_executed_op_hmul_pred_on.sum                               inst                              0
    smsp__sass_thread_inst_executed_op_integer_pred_on.sum                            inst                157,272,309,687
    smsp__sass_thread_inst_executed_op_inter_thread_communication_pred_on.            inst                              0
    sum                                                                                                                  
    smsp__sass_thread_inst_executed_op_memory_pred_on.sum                             inst                102,726,647,210
    smsp__sass_thread_inst_executed_op_misc_pred_on.sum                               inst                 38,526,862,266
    smsp__sass_thread_inst_executed_op_mufu_pred_on.sum                                                           (!) n/a
    smsp__thread_inst_executed_per_inst_executed.pct                                     %                          40.87
    smsp__thread_inst_executed_per_inst_executed.ratio                                                              13.08
    smsp__warp_issue_stalled_drain_miss_per_warp_active.pct                                                       (!) n/a
    smsp__warp_issue_stalled_imc_miss_per_warp_active.pct                                %                           0.00
    smsp__warp_issue_stalled_long_scoreboard_miss_per_warp_active.pct                                             (!) n/a
    smsp__warp_issue_stalled_misc_membar_per_warp_active.pct                                                      (!) n/a
    smsp__warp_issue_stalled_misc_mio_throttle_per_warp_active.pct                                                (!) n/a
    smsp__warp_issue_stalled_misc_miss_per_warp_active.pct                                                        (!) n/a
    smsp__warp_issue_stalled_misc_sleeping_per_warp_active.pct                                                    (!) n/a
    smsp__warp_issue_stalled_misc_tex_throttle_per_warp_active.pct                                                (!) n/a
    smsp__warp_issue_stalled_no_instruction_miss_per_warp_active.pct                                              (!) n/a
    smsp__warp_issue_stalled_short_scoreboard_miss_per_warp_active.pct                                            (!) n/a
    smsp__warps_eligible.sum.per_cycle_active                                         warp                         275.97
    ---------------------------------------------------------------------- --------------- ------------------------------

  free_scene(hitable_object**, hitable_list**, camera**), 2023-Dec-13 13:47:03, Context 1, Stream 7
    Section: Command line profiler metrics
    ---------------------------------------------------------------------- --------------- ------------------------------
    dram__bytes_read.sum                                                             Kbyte                          14.08
    dram__bytes_read.sum.per_second                                           Mbyte/second                           8.73
    dram__bytes_write.sum                                                             byte                              0
    dram__bytes_write.sum.per_second                                           byte/second                              0
    dram__sectors_read.sum                                                          sector                            440
    dram__sectors_write.sum                                                         sector                              0
    l1tex__f_tex2sm_cycles_active.avg.pct_of_peak_sustained_elapsed                      %                              0
    l1tex__lsu_writeback_active.avg.pct_of_peak_sustained_active                         %                           0.89
    l1tex__lsu_writeback_active.sum                                                  cycle                         10,746
    l1tex__t_bytes_pipe_lsu_mem_global_op_ld.sum.per_second                   Mbyte/second                          42.38
    l1tex__t_bytes_pipe_lsu_mem_global_op_st.sum                                     Kbyte                         112.19
    l1tex__t_bytes_pipe_lsu_mem_global_op_st.sum.per_second                   Mbyte/second                          69.57
    l1tex__t_bytes_pipe_lsu_mem_local_op_ld.sum.per_second                    Mbyte/second                         160.29
    l1tex__t_requests_pipe_lsu_mem_global_op_atom.sum                              request                            206
    l1tex__t_requests_pipe_lsu_mem_global_op_ld.sum                                request                          2,136
    l1tex__t_requests_pipe_lsu_mem_global_op_red.sum                               request                             18
    l1tex__t_requests_pipe_lsu_mem_global_op_st.sum                                request                          3,506
    l1tex__t_requests_pipe_lsu_mem_local_op_ld.sum                                 request                          8,078
    l1tex__t_requests_pipe_lsu_mem_local_op_st.sum                                 request                          2,250
    l1tex__t_requests_pipe_tex_mem_surface_op_atom.sum                             request                              0
    l1tex__t_requests_pipe_tex_mem_surface_op_ld.sum                               request                              0
    l1tex__t_requests_pipe_tex_mem_surface_op_red.sum                              request                              0
    l1tex__t_requests_pipe_tex_mem_surface_op_st.sum                               request                              0
    l1tex__t_requests_pipe_tex_mem_texture.sum                                     request                              0
    l1tex__t_sector_hit_rate.pct                                                         %                          83.96
    l1tex__t_sectors_pipe_lsu_mem_global_op.sum                                                                   (!) n/a
    l1tex__t_sectors_pipe_lsu_mem_global_op_ld.sum                                  sector                          2,136
    l1tex__t_sectors_pipe_lsu_mem_global_op_lookup_hit.sum                                                        (!) n/a
    l1tex__t_sectors_pipe_lsu_mem_local_op_ld.sum                                   sector                          8,078
    l1tex__t_sectors_pipe_lsu_mem_local_op_st.sum                                   sector                          2,250
    l1tex__t_sectors_pipe_lsu_mem_local_op_st.sum.per_second                sector/usecond                           1.40
    l1tex__t_set_accesses_pipe_lsu_mem_global_op_atom.sum                                                             206
    l1tex__t_set_accesses_pipe_lsu_mem_global_op_red.sum                                                               18
    l1tex__t_set_accesses_pipe_tex_mem_surface_op_atom.sum                                                              0
    l1tex__t_set_accesses_pipe_tex_mem_surface_op_red.sum                                                               0
    l1tex__tex_writeback_active.avg.pct_of_peak_sustained_active                         %                              0
    l1tex__texin_sm2tex_req_cycles_active.avg.pct_of_peak_sustained_elapse               %                           0.00
    d                                                                                                                    
    lts__t_bytes_equiv_l1sectormiss_pipe_lsu_mem_global_op_ld.sum                    Kbyte                          68.13
    lts__t_bytes_equiv_l1sectormiss_pipe_lsu_mem_global_op_st.sum                    Kbyte                           3.26
    lts__t_bytes_equiv_l1sectormiss_pipe_lsu_mem_surface_op_st.sum                                                (!) n/a
    lts__t_bytes_equiv_l1sectormiss_pipe_tex_mem_surface_op_ld.sum                    byte                              0
    lts__t_sector_hit_rate.pct                                                           %                          98.19
    lts__t_sector_op_read_hit_rate.pct                                                   %                           9.90
    lts__t_sector_op_write_hit_rate.pct                                                  %                          95.38
    lts__t_sectors.avg.pct_of_peak_sustained_elapsed                                     %                           0.08
    lts__t_sectors_aperture_sysmem_op_read.sum                                      sector                             16
    lts__t_sectors_aperture_sysmem_op_read.sum.per_second                   sector/msecond                           9.92
    lts__t_sectors_aperture_sysmem_op_write.sum                                     sector                          6,871
    lts__t_sectors_aperture_sysmem_op_write.sum.per_second                  sector/usecond                           4.26
    lts__t_sectors_op_read.sum                                                      sector                         21,518
    lts__t_sectors_op_read.sum.per_second                                   sector/usecond                          13.34
    lts__t_sectors_op_write.sum                                                     sector                          9,694
    lts__t_sectors_op_write.sum.per_second                                  sector/usecond                           6.01
    lts__t_sectors_srcunit_l1_op_atom.sum                                           sector                              0
    lts__t_sectors_srcunit_l1_op_atom.sum.per_second                         sector/second                              0
    lts__t_sectors_srcunit_tex_op_read.sum                                          sector                          2,161
    lts__t_sectors_srcunit_tex_op_read.sum.per_second                       sector/usecond                           1.34
    sm__mio2rf_writeback_active.avg.pct_of_peak_sustained_elapsed                        %                           0.00
    sm__pipe_tensor_cycles_active.avg.pct_of_peak_sustained_active                       %                              0
    sm__warps_active.avg.pct_of_peak_sustained_active                                    %                           1.58
    smsp__average_inst_executed_per_warp.ratio                                   inst/warp                     106,941.00
    smsp__cycles_active.avg.pct_of_peak_sustained_elapsed                                %                           0.23
    smsp__inst_executed.avg.per_cycle_active                                    inst/cycle                           0.09
    smsp__inst_executed.sum                                                           inst                        106,941
    smsp__inst_executed_op_global_atom.sum                                                                        (!) n/a
    smsp__inst_executed_op_global_ld.sum                                              inst                             20
    smsp__inst_executed_op_global_st.sum                                              inst                             48
    smsp__inst_executed_op_local_ld.sum                                               inst                          7,898
    smsp__inst_executed_op_shared_atom.sum                                            inst                              0
    smsp__inst_executed_op_shared_atom_dot_alu.sum                                    inst                              0
    smsp__inst_executed_op_shared_atom_dot_cas.sum                                    inst                              0
    smsp__inst_executed_op_shared_ld.avg.pct_of_peak_sustained_elapsed                   %                           0.00
    smsp__inst_executed_op_shared_ld.sum                                              inst                            192
    smsp__inst_executed_op_shared_ld.sum.per_second                           inst/msecond                         119.05
    smsp__inst_executed_op_shared_st.avg.pct_of_peak_sustained_elapsed                   %                              0
    smsp__inst_executed_op_shared_st.sum                                              inst                              0
    smsp__inst_executed_op_shared_st.sum.per_second                            inst/second                              0
    smsp__inst_executed_op_surface_atom.sum                                           inst                              0
    smsp__inst_executed_op_surface_ld.sum                                             inst                              0
    smsp__inst_executed_op_surface_red.sum                                            inst                              0
    smsp__inst_executed_op_surface_st.sum                                             inst                              0
    smsp__inst_executed_op_texture.sum                                                inst                              0
    smsp__inst_executed_pipe_adu.sum                                                  inst                            131
    smsp__inst_executed_pipe_cbu.sum                                                  inst                          3,617
    smsp__inst_executed_pipe_fp16.sum                                                 inst                              0
    smsp__inst_executed_pipe_fp64.avg.pct_of_peak_sustained_active                       %                              0
    smsp__inst_executed_pipe_lsu.avg.pct_of_peak_sustained_active                        %                           1.63
    smsp__inst_executed_pipe_tex.avg.pct_of_peak_sustained_active                        %                           0.01
    smsp__inst_issued.avg.per_cycle_active                                      inst/cycle                           0.09
    smsp__inst_issued.sum                                                             inst                        107,171
    smsp__issue_active.avg.pct_of_peak_sustained_active                                  %                           8.83
    smsp__sass_thread_inst_executed_op_control_pred_on.sum                            inst                            112
    smsp__sass_thread_inst_executed_op_dadd_pred_on.sum                               inst                              0
    smsp__sass_thread_inst_executed_op_dfma_pred_on.sum                               inst                              0
    smsp__sass_thread_inst_executed_op_dmul_pred_on.sum                               inst                              0
    smsp__sass_thread_inst_executed_op_fadd_pred_on.sum                               inst                              0
    smsp__sass_thread_inst_executed_op_ffma_pred_on.sum                               inst                              0
    smsp__sass_thread_inst_executed_op_fmul_pred_on.sum                               inst                              0
    smsp__sass_thread_inst_executed_op_fp16_pred_on.sum                               inst                              0
    smsp__sass_thread_inst_executed_op_fp32_pred_on.sum                               inst                              0
    smsp__sass_thread_inst_executed_op_fp64_pred_on.sum                               inst                              0
    smsp__sass_thread_inst_executed_op_hadd_pred_on.sum                               inst                              0
    smsp__sass_thread_inst_executed_op_hfma_pred_on.sum                               inst                              0
    smsp__sass_thread_inst_executed_op_hmul_pred_on.sum                               inst                              0
    smsp__sass_thread_inst_executed_op_integer_pred_on.sum                            inst                            219
    smsp__sass_thread_inst_executed_op_inter_thread_communication_pred_on.            inst                              0
    sum                                                                                                                  
    smsp__sass_thread_inst_executed_op_memory_pred_on.sum                             inst                            232
    smsp__sass_thread_inst_executed_op_misc_pred_on.sum                               inst                            126
    smsp__sass_thread_inst_executed_op_mufu_pred_on.sum                                                           (!) n/a
    smsp__thread_inst_executed_per_inst_executed.pct                                     %                           3.12
    smsp__thread_inst_executed_per_inst_executed.ratio                                                                  1
    smsp__warp_issue_stalled_drain_miss_per_warp_active.pct                                                       (!) n/a
    smsp__warp_issue_stalled_imc_miss_per_warp_active.pct                                %                           0.11
    smsp__warp_issue_stalled_long_scoreboard_miss_per_warp_active.pct                                             (!) n/a
    smsp__warp_issue_stalled_misc_membar_per_warp_active.pct                                                      (!) n/a
    smsp__warp_issue_stalled_misc_mio_throttle_per_warp_active.pct                                                (!) n/a
    smsp__warp_issue_stalled_misc_miss_per_warp_active.pct                                                        (!) n/a
    smsp__warp_issue_stalled_misc_sleeping_per_warp_active.pct                                                    (!) n/a
    smsp__warp_issue_stalled_misc_tex_throttle_per_warp_active.pct                                                (!) n/a
    smsp__warp_issue_stalled_no_instruction_miss_per_warp_active.pct                                              (!) n/a
    smsp__warp_issue_stalled_short_scoreboard_miss_per_warp_active.pct                                            (!) n/a
    smsp__warps_eligible.sum.per_cycle_active                                         warp                          38.14
    ---------------------------------------------------------------------- --------------- ------------------------------

wangpeng@rongtian-SYS-7049GP-TRT:~/backup6/GPU-rendering-programs/61-Ray-tracing-with-perlin-noise-sample3$ 

