Input image size : 1920 x 1440
grainRadius : 0.2
sigmaR : 0
sigmaFilter : 0.8
NmonteCarlo : 800
colour
xA : 0
yA : 0
xB : 1920
yB : 1440
mOut : 1440
nOut : 1920
randomizeSeed : 1
***************************
image size : 1920 x 1440
------------------
muR : 0.2
sigmaR : 0
zoom, s : 1
sigmaFilter : 0.8
NmonteCarlo : 800
xA : 0
yA : 0
xB : 1920
yB : 1440
randomizeSeed : 1
------------------
Output image size is 1920 x 1440
==PROF== Connected to process 89173 (/home/wangpeng/backup6/GPU-rendering-programs/64-Film-grain-rendering-gpu-sample3/bin/film_grain_rendering_main)
blocks.x : 69
blocks.y : 52
blocks.z : 1
==PROF== Profiling "kernel" - 1: 0%....50%....100% - 13 passes
Time to generate:  38581.5 ms; Framerate: 0.03 images/sec
image size : 1920 x 1440
------------------
muR : 0.2
sigmaR : 0
zoom, s : 1
sigmaFilter : 0.8
NmonteCarlo : 800
xA : 0
yA : 0
xB : 1920
yB : 1440
randomizeSeed : 1
------------------
Output image size is 1920 x 1440
blocks.x : 69
blocks.y : 52
blocks.z : 1
==PROF== Profiling "kernel" - 2: 0%....50%....100% - 13 passes
Time to generate:  38708.9 ms; Framerate: 0.03 images/sec
image size : 1920 x 1440
------------------
muR : 0.2
sigmaR : 0
zoom, s : 1
sigmaFilter : 0.8
NmonteCarlo : 800
xA : 0
yA : 0
xB : 1920
yB : 1440
randomizeSeed : 1
------------------
Output image size is 1920 x 1440
blocks.x : 69
blocks.y : 52
blocks.z : 1
==PROF== Profiling "kernel" - 3: 0%....50%....100% - 13 passes
Time to generate:  39212.0 ms; Framerate: 0.03 images/sec
output file name : 22.png
time elapsed : 117.723
***************************


==PROF== Disconnected from process 89173
[89173] film_grain_rendering_main@127.0.0.1
  kernel(float*, unsigned long, unsigned long, unsigned long, unsigned long, float, float, int, float, float, unsigned int, float, float, float, float), 2024-Jan-10 11:03:23, Context 1, Stream 7
    Section: Command line profiler metrics
    ---------------------------------------------------------------------- --------------- ------------------------------
    dram__bytes_read.sum                                                             Mbyte                          45.43
    dram__bytes_read.sum.per_second                                           Mbyte/second                          58.51
    dram__bytes_write.sum                                                            Mbyte                           6.05
    dram__bytes_write.sum.per_second                                          Mbyte/second                           7.79
    dram__sectors_read.sum                                                          sector                      1,419,820
    dram__sectors_write.sum                                                         sector                        189,072
    l1tex__f_tex2sm_cycles_active.avg.pct_of_peak_sustained_elapsed                      %                          16.71
    l1tex__lsu_writeback_active.avg.pct_of_peak_sustained_active                         %                           0.00
    l1tex__lsu_writeback_active.sum                                                  cycle                        356,868
    l1tex__t_bytes_pipe_lsu_mem_global_op_ld.sum.per_second                    byte/second                              0
    l1tex__t_bytes_pipe_lsu_mem_global_op_st.sum                                     Mbyte                          13.81
    l1tex__t_bytes_pipe_lsu_mem_global_op_st.sum.per_second                   Mbyte/second                          17.79
    l1tex__t_bytes_pipe_lsu_mem_local_op_ld.sum.per_second                     byte/second                              0
    l1tex__t_requests_pipe_lsu_mem_global_op_atom.sum                              request                              0
    l1tex__t_requests_pipe_lsu_mem_global_op_ld.sum                                request                              0
    l1tex__t_requests_pipe_lsu_mem_global_op_red.sum                               request                              0
    l1tex__t_requests_pipe_lsu_mem_global_op_st.sum                                request                         88,734
    l1tex__t_requests_pipe_lsu_mem_local_op_ld.sum                                 request                              0
    l1tex__t_requests_pipe_lsu_mem_local_op_st.sum                                 request                    141,974,400
    l1tex__t_requests_pipe_tex_mem_surface_op_atom.sum                             request                              0
    l1tex__t_requests_pipe_tex_mem_surface_op_ld.sum                               request                              0
    l1tex__t_requests_pipe_tex_mem_surface_op_red.sum                              request                              0
    l1tex__t_requests_pipe_tex_mem_surface_op_st.sum                               request                              0
    l1tex__t_requests_pipe_tex_mem_texture.sum                                     request                 10,714,292,967
    l1tex__t_sector_hit_rate.pct                                                         %                          99.99
    l1tex__t_sectors_pipe_lsu_mem_global_op.sum                                                                   (!) n/a
    l1tex__t_sectors_pipe_lsu_mem_global_op_ld.sum                                  sector                              0
    l1tex__t_sectors_pipe_lsu_mem_global_op_lookup_hit.sum                                                        (!) n/a
    l1tex__t_sectors_pipe_lsu_mem_local_op_ld.sum                                   sector                              0
    l1tex__t_sectors_pipe_lsu_mem_local_op_st.sum                                   sector                    554,112,051
    l1tex__t_sectors_pipe_lsu_mem_local_op_st.sum.per_second                sector/usecond                         713.60
    l1tex__t_set_accesses_pipe_lsu_mem_global_op_atom.sum                                                               0
    l1tex__t_set_accesses_pipe_lsu_mem_global_op_red.sum                                                                0
    l1tex__t_set_accesses_pipe_tex_mem_surface_op_atom.sum                                                              0
    l1tex__t_set_accesses_pipe_tex_mem_surface_op_red.sum                                                               0
    l1tex__tex_writeback_active.avg.pct_of_peak_sustained_active                         %                          16.98
    l1tex__texin_sm2tex_req_cycles_active.avg.pct_of_peak_sustained_elapse               %                          16.71
    d                                                                                                                    
    lts__t_bytes_equiv_l1sectormiss_pipe_lsu_mem_global_op_ld.sum                     byte                              0
    lts__t_bytes_equiv_l1sectormiss_pipe_lsu_mem_global_op_st.sum                    Mbyte                          10.21
    lts__t_bytes_equiv_l1sectormiss_pipe_lsu_mem_surface_op_st.sum                                                (!) n/a
    lts__t_bytes_equiv_l1sectormiss_pipe_tex_mem_surface_op_ld.sum                    byte                              0
    lts__t_sector_hit_rate.pct                                                           %                          99.82
    lts__t_sector_op_read_hit_rate.pct                                                   %                          47.21
    lts__t_sector_op_write_hit_rate.pct                                                  %                         100.00
    lts__t_sectors.avg.pct_of_peak_sustained_elapsed                                     %                           0.88
    lts__t_sectors_aperture_sysmem_op_read.sum                                      sector                              0
    lts__t_sectors_aperture_sysmem_op_read.sum.per_second                    sector/second                              0
    lts__t_sectors_aperture_sysmem_op_write.sum                                     sector                             54
    lts__t_sectors_aperture_sysmem_op_write.sum.per_second                   sector/second                          69.54
    lts__t_sectors_op_read.sum                                                      sector                      2,899,197
    lts__t_sectors_op_read.sum.per_second                                   sector/usecond                           3.73
    lts__t_sectors_op_write.sum                                                     sector                    833,633,302
    lts__t_sectors_op_write.sum.per_second                                  sector/nsecond                           1.07
    lts__t_sectors_srcunit_l1_op_atom.sum                                           sector                              0
    lts__t_sectors_srcunit_l1_op_atom.sum.per_second                         sector/second                              0
    lts__t_sectors_srcunit_tex_op_read.sum                                          sector                      1,973,382
    lts__t_sectors_srcunit_tex_op_read.sum.per_second                       sector/usecond                           2.54
    sm__mio2rf_writeback_active.avg.pct_of_peak_sustained_elapsed                        %                           1.91
    sm__pipe_tensor_cycles_active.avg.pct_of_peak_sustained_active                       %                              0
    sm__warps_active.avg.pct_of_peak_sustained_active                                    %                          35.33
    smsp__average_inst_executed_per_warp.ratio                                   inst/warp                   1,618,135.81
    smsp__cycles_active.avg.pct_of_peak_sustained_elapsed                                %                          92.53
    smsp__inst_executed.avg.per_cycle_active                                    inst/cycle                           0.61
    smsp__inst_executed.sum                                                           inst                145,146,782,178
    smsp__inst_executed_op_global_atom.sum                                                                        (!) n/a
    smsp__inst_executed_op_global_ld.sum                                              inst                              0
    smsp__inst_executed_op_global_st.sum                                              inst                         88,734
    smsp__inst_executed_op_local_ld.sum                                               inst                              0
    smsp__inst_executed_op_shared_atom.sum                                            inst                              0
    smsp__inst_executed_op_shared_atom_dot_alu.sum                                    inst                              0
    smsp__inst_executed_op_shared_atom_dot_cas.sum                                    inst                              0
    smsp__inst_executed_op_shared_ld.avg.pct_of_peak_sustained_elapsed                   %                              0
    smsp__inst_executed_op_shared_ld.sum                                              inst                              0
    smsp__inst_executed_op_shared_ld.sum.per_second                            inst/second                              0
    smsp__inst_executed_op_shared_st.avg.pct_of_peak_sustained_elapsed                   %                              0
    smsp__inst_executed_op_shared_st.sum                                              inst                              0
    smsp__inst_executed_op_shared_st.sum.per_second                            inst/second                              0
    smsp__inst_executed_op_surface_atom.sum                                           inst                              0
    smsp__inst_executed_op_surface_ld.sum                                             inst                              0
    smsp__inst_executed_op_surface_red.sum                                            inst                              0
    smsp__inst_executed_op_surface_st.sum                                             inst                              0
    smsp__inst_executed_op_texture.sum                                                inst                  1,598,571,951
    smsp__inst_executed_pipe_adu.sum                                                  inst                    852,203,268
    smsp__inst_executed_pipe_cbu.sum                                                  inst                 11,694,386,294
    smsp__inst_executed_pipe_fp16.sum                                                 inst                              0
    smsp__inst_executed_pipe_fp64.avg.pct_of_peak_sustained_active                       %                          27.20
    smsp__inst_executed_pipe_lsu.avg.pct_of_peak_sustained_active                        %                           0.06
    smsp__inst_executed_pipe_tex.avg.pct_of_peak_sustained_active                        %                           1.35
    smsp__inst_issued.avg.per_cycle_active                                      inst/cycle                           0.61
    smsp__inst_issued.sum                                                             inst                145,637,442,645
    smsp__issue_active.avg.pct_of_peak_sustained_active                                  %                          61.36
    smsp__sass_thread_inst_executed_op_control_pred_on.sum                            inst                188,628,726,874
    smsp__sass_thread_inst_executed_op_dadd_pred_on.sum                               inst                 22,198,285,264
    smsp__sass_thread_inst_executed_op_dfma_pred_on.sum                               inst                135,006,125,496
    smsp__sass_thread_inst_executed_op_dmul_pred_on.sum                               inst                 64,263,187,896
    smsp__sass_thread_inst_executed_op_fadd_pred_on.sum                               inst                 31,185,607,937
    smsp__sass_thread_inst_executed_op_ffma_pred_on.sum                               inst                145,619,008,307
    smsp__sass_thread_inst_executed_op_fmul_pred_on.sum                               inst                 65,267,952,689
    smsp__sass_thread_inst_executed_op_fp16_pred_on.sum                               inst                              0
    smsp__sass_thread_inst_executed_op_fp32_pred_on.sum                               inst                352,668,312,814
    smsp__sass_thread_inst_executed_op_fp64_pred_on.sum                               inst                250,175,232,404
    smsp__sass_thread_inst_executed_op_hadd_pred_on.sum                               inst                              0
    smsp__sass_thread_inst_executed_op_hfma_pred_on.sum                               inst                              0
    smsp__sass_thread_inst_executed_op_hmul_pred_on.sum                               inst                              0
    smsp__sass_thread_inst_executed_op_integer_pred_on.sum                            inst                679,716,525,074
    smsp__sass_thread_inst_executed_op_inter_thread_communication_pred_on.            inst                              0
    sum                                                                                                                  
    smsp__sass_thread_inst_executed_op_memory_pred_on.sum                             inst                 64,016,781,474
    smsp__sass_thread_inst_executed_op_misc_pred_on.sum                               inst                 75,942,692,863
    smsp__sass_thread_inst_executed_op_mufu_pred_on.sum                                                           (!) n/a
    smsp__thread_inst_executed_per_inst_executed.pct                                     %                          44.46
    smsp__thread_inst_executed_per_inst_executed.ratio                                                              14.23
    smsp__warp_issue_stalled_drain_miss_per_warp_active.pct                                                       (!) n/a
    smsp__warp_issue_stalled_imc_miss_per_warp_active.pct                                %                           0.00
    smsp__warp_issue_stalled_long_scoreboard_miss_per_warp_active.pct                                             (!) n/a
    smsp__warp_issue_stalled_misc_membar_per_warp_active.pct                                                      (!) n/a
    smsp__warp_issue_stalled_misc_mio_throttle_per_warp_active.pct                                                (!) n/a
    smsp__warp_issue_stalled_misc_miss_per_warp_active.pct                                                        (!) n/a
    smsp__warp_issue_stalled_misc_sleeping_per_warp_active.pct                                                    (!) n/a
    smsp__warp_issue_stalled_misc_tex_throttle_per_warp_active.pct                                                (!) n/a
    smsp__warp_issue_stalled_no_instruction_miss_per_warp_active.pct                                              (!) n/a
    smsp__warp_issue_stalled_short_scoreboard_miss_per_warp_active.pct                                            (!) n/a
    smsp__warps_eligible.sum.per_cycle_active                                         warp                         497.21
    ---------------------------------------------------------------------- --------------- ------------------------------

  kernel(float*, unsigned long, unsigned long, unsigned long, unsigned long, float, float, int, float, float, unsigned int, float, float, float, float), 2024-Jan-10 11:04:02, Context 1, Stream 7
    Section: Command line profiler metrics
    ---------------------------------------------------------------------- --------------- ------------------------------
    dram__bytes_read.sum                                                             Mbyte                          45.52
    dram__bytes_read.sum.per_second                                           Mbyte/second                          60.66
    dram__bytes_write.sum                                                            Mbyte                           6.01
    dram__bytes_write.sum.per_second                                          Mbyte/second                           8.00
    dram__sectors_read.sum                                                          sector                      1,422,556
    dram__sectors_write.sum                                                         sector                        187,720
    l1tex__f_tex2sm_cycles_active.avg.pct_of_peak_sustained_elapsed                      %                          18.39
    l1tex__lsu_writeback_active.avg.pct_of_peak_sustained_active                         %                           0.00
    l1tex__lsu_writeback_active.sum                                                  cycle                        356,868
    l1tex__t_bytes_pipe_lsu_mem_global_op_ld.sum.per_second                    byte/second                              0
    l1tex__t_bytes_pipe_lsu_mem_global_op_st.sum                                     Mbyte                          13.81
    l1tex__t_bytes_pipe_lsu_mem_global_op_st.sum.per_second                   Mbyte/second                          18.41
    l1tex__t_bytes_pipe_lsu_mem_local_op_ld.sum.per_second                     byte/second                              0
    l1tex__t_requests_pipe_lsu_mem_global_op_atom.sum                              request                              0
    l1tex__t_requests_pipe_lsu_mem_global_op_ld.sum                                request                              0
    l1tex__t_requests_pipe_lsu_mem_global_op_red.sum                               request                              0
    l1tex__t_requests_pipe_lsu_mem_global_op_st.sum                                request                         88,734
    l1tex__t_requests_pipe_lsu_mem_local_op_ld.sum                                 request                              0
    l1tex__t_requests_pipe_lsu_mem_local_op_st.sum                                 request                    141,974,400
    l1tex__t_requests_pipe_tex_mem_surface_op_atom.sum                             request                              0
    l1tex__t_requests_pipe_tex_mem_surface_op_ld.sum                               request                              0
    l1tex__t_requests_pipe_tex_mem_surface_op_red.sum                              request                              0
    l1tex__t_requests_pipe_tex_mem_surface_op_st.sum                               request                              0
    l1tex__t_requests_pipe_tex_mem_texture.sum                                     request                 11,411,017,503
    l1tex__t_sector_hit_rate.pct                                                         %                          99.99
    l1tex__t_sectors_pipe_lsu_mem_global_op.sum                                                                   (!) n/a
    l1tex__t_sectors_pipe_lsu_mem_global_op_ld.sum                                  sector                              0
    l1tex__t_sectors_pipe_lsu_mem_global_op_lookup_hit.sum                                                        (!) n/a
    l1tex__t_sectors_pipe_lsu_mem_local_op_ld.sum                                   sector                              0
    l1tex__t_sectors_pipe_lsu_mem_local_op_st.sum                                   sector                    554,111,757
    l1tex__t_sectors_pipe_lsu_mem_local_op_st.sum.per_second                sector/usecond                         738.40
    l1tex__t_set_accesses_pipe_lsu_mem_global_op_atom.sum                                                               0
    l1tex__t_set_accesses_pipe_lsu_mem_global_op_red.sum                                                                0
    l1tex__t_set_accesses_pipe_tex_mem_surface_op_atom.sum                                                              0
    l1tex__t_set_accesses_pipe_tex_mem_surface_op_red.sum                                                               0
    l1tex__tex_writeback_active.avg.pct_of_peak_sustained_active                         %                          18.73
    l1tex__texin_sm2tex_req_cycles_active.avg.pct_of_peak_sustained_elapse               %                          18.39
    d                                                                                                                    
    lts__t_bytes_equiv_l1sectormiss_pipe_lsu_mem_global_op_ld.sum                     byte                              0
    lts__t_bytes_equiv_l1sectormiss_pipe_lsu_mem_global_op_st.sum                    Mbyte                          10.20
    lts__t_bytes_equiv_l1sectormiss_pipe_lsu_mem_surface_op_st.sum                                                (!) n/a
    lts__t_bytes_equiv_l1sectormiss_pipe_tex_mem_surface_op_ld.sum                    byte                              0
    lts__t_sector_hit_rate.pct                                                           %                          99.78
    lts__t_sector_op_read_hit_rate.pct                                                   %                          47.37
    lts__t_sector_op_write_hit_rate.pct                                                  %                          99.96
    lts__t_sectors.avg.pct_of_peak_sustained_elapsed                                     %                           0.97
    lts__t_sectors_aperture_sysmem_op_read.sum                                      sector                              0
    lts__t_sectors_aperture_sysmem_op_read.sum.per_second                    sector/second                              0
    lts__t_sectors_aperture_sysmem_op_write.sum                                     sector                             52
    lts__t_sectors_aperture_sysmem_op_write.sum.per_second                   sector/second                          69.29
    lts__t_sectors_op_read.sum                                                      sector                      2,927,302
    lts__t_sectors_op_read.sum.per_second                                   sector/usecond                           3.90
    lts__t_sectors_op_write.sum                                                     sector                    833,982,081
    lts__t_sectors_op_write.sum.per_second                                  sector/nsecond                           1.11
    lts__t_sectors_srcunit_l1_op_atom.sum                                           sector                              0
    lts__t_sectors_srcunit_l1_op_atom.sum.per_second                         sector/second                              0
    lts__t_sectors_srcunit_tex_op_read.sum                                          sector                      2,025,024
    lts__t_sectors_srcunit_tex_op_read.sum.per_second                       sector/usecond                           2.70
    sm__mio2rf_writeback_active.avg.pct_of_peak_sustained_elapsed                        %                           2.01
    sm__pipe_tensor_cycles_active.avg.pct_of_peak_sustained_active                       %                              0
    sm__warps_active.avg.pct_of_peak_sustained_active                                    %                          35.23
    smsp__average_inst_executed_per_warp.ratio                                   inst/warp                   1,563,855.27
    smsp__cycles_active.avg.pct_of_peak_sustained_elapsed                                %                          92.36
    smsp__inst_executed.avg.per_cycle_active                                    inst/cycle                           0.61
    smsp__inst_executed.sum                                                           inst                140,277,818,116
    smsp__inst_executed_op_global_atom.sum                                                                        (!) n/a
    smsp__inst_executed_op_global_ld.sum                                              inst                              0
    smsp__inst_executed_op_global_st.sum                                              inst                         88,734
    smsp__inst_executed_op_local_ld.sum                                               inst                              0
    smsp__inst_executed_op_shared_atom.sum                                            inst                              0
    smsp__inst_executed_op_shared_atom_dot_alu.sum                                    inst                              0
    smsp__inst_executed_op_shared_atom_dot_cas.sum                                    inst                              0
    smsp__inst_executed_op_shared_ld.avg.pct_of_peak_sustained_elapsed                   %                              0
    smsp__inst_executed_op_shared_ld.sum                                              inst                              0
    smsp__inst_executed_op_shared_ld.sum.per_second                            inst/second                              0
    smsp__inst_executed_op_shared_st.avg.pct_of_peak_sustained_elapsed                   %                              0
    smsp__inst_executed_op_shared_st.sum                                              inst                              0
    smsp__inst_executed_op_shared_st.sum.per_second                            inst/second                              0
    smsp__inst_executed_op_surface_atom.sum                                           inst                              0
    smsp__inst_executed_op_surface_ld.sum                                             inst                              0
    smsp__inst_executed_op_surface_red.sum                                            inst                              0
    smsp__inst_executed_op_surface_st.sum                                             inst                              0
    smsp__inst_executed_op_texture.sum                                                inst                  1,644,483,801
    smsp__inst_executed_pipe_adu.sum                                                  inst                    852,203,268
    smsp__inst_executed_pipe_cbu.sum                                                  inst                 11,163,627,408
    smsp__inst_executed_pipe_fp16.sum                                                 inst                              0
    smsp__inst_executed_pipe_fp64.avg.pct_of_peak_sustained_active                       %                          27.09
    smsp__inst_executed_pipe_lsu.avg.pct_of_peak_sustained_active                        %                           0.06
    smsp__inst_executed_pipe_tex.avg.pct_of_peak_sustained_active                        %                           1.43
    smsp__inst_issued.avg.per_cycle_active                                      inst/cycle                           0.61
    smsp__inst_issued.sum                                                             inst                140,747,407,536
    smsp__issue_active.avg.pct_of_peak_sustained_active                                  %                          61.41
    smsp__sass_thread_inst_executed_op_control_pred_on.sum                            inst                193,778,371,078
    smsp__sass_thread_inst_executed_op_dadd_pred_on.sum                               inst                 21,010,186,026
    smsp__sass_thread_inst_executed_op_dfma_pred_on.sum                               inst                133,420,277,439
    smsp__sass_thread_inst_executed_op_dmul_pred_on.sum                               inst                 62,481,039,039
    smsp__sass_thread_inst_executed_op_fadd_pred_on.sum                               inst                 29,426,971,407
    smsp__sass_thread_inst_executed_op_ffma_pred_on.sum                               inst                140,048,341,163
    smsp__sass_thread_inst_executed_op_fmul_pred_on.sum                               inst                 65,235,673,537
    smsp__sass_thread_inst_executed_op_fp16_pred_on.sum                               inst                              0
    smsp__sass_thread_inst_executed_op_fp32_pred_on.sum                               inst                346,355,930,654
    smsp__sass_thread_inst_executed_op_fp64_pred_on.sum                               inst                247,316,152,517
    smsp__sass_thread_inst_executed_op_hadd_pred_on.sum                               inst                              0
    smsp__sass_thread_inst_executed_op_hfma_pred_on.sum                               inst                              0
    smsp__sass_thread_inst_executed_op_hmul_pred_on.sum                               inst                              0
    smsp__sass_thread_inst_executed_op_integer_pred_on.sum                            inst                709,061,187,808
    smsp__sass_thread_inst_executed_op_inter_thread_communication_pred_on.            inst                              0
    sum                                                                                                                  
    smsp__sass_thread_inst_executed_op_memory_pred_on.sum                             inst                 67,453,380,300
    smsp__sass_thread_inst_executed_op_misc_pred_on.sum                               inst                 77,787,683,986
    smsp__sass_thread_inst_executed_op_mufu_pred_on.sum                                                           (!) n/a
    smsp__thread_inst_executed_per_inst_executed.pct                                     %                          46.88
    smsp__thread_inst_executed_per_inst_executed.ratio                                                              15.00
    smsp__warp_issue_stalled_drain_miss_per_warp_active.pct                                                       (!) n/a
    smsp__warp_issue_stalled_imc_miss_per_warp_active.pct                                %                           0.00
    smsp__warp_issue_stalled_long_scoreboard_miss_per_warp_active.pct                                             (!) n/a
    smsp__warp_issue_stalled_misc_membar_per_warp_active.pct                                                      (!) n/a
    smsp__warp_issue_stalled_misc_mio_throttle_per_warp_active.pct                                                (!) n/a
    smsp__warp_issue_stalled_misc_miss_per_warp_active.pct                                                        (!) n/a
    smsp__warp_issue_stalled_misc_sleeping_per_warp_active.pct                                                    (!) n/a
    smsp__warp_issue_stalled_misc_tex_throttle_per_warp_active.pct                                                (!) n/a
    smsp__warp_issue_stalled_no_instruction_miss_per_warp_active.pct                                              (!) n/a
    smsp__warp_issue_stalled_short_scoreboard_miss_per_warp_active.pct                                            (!) n/a
    smsp__warps_eligible.sum.per_cycle_active                                         warp                         498.39
    ---------------------------------------------------------------------- --------------- ------------------------------

  kernel(float*, unsigned long, unsigned long, unsigned long, unsigned long, float, float, int, float, float, unsigned int, float, float, float, float), 2024-Jan-10 11:04:41, Context 1, Stream 7
    Section: Command line profiler metrics
    ---------------------------------------------------------------------- --------------- ------------------------------
    dram__bytes_read.sum                                                             Mbyte                          45.43
    dram__bytes_read.sum.per_second                                           Mbyte/second                          59.22
    dram__bytes_write.sum                                                            Mbyte                           6.01
    dram__bytes_write.sum.per_second                                          Mbyte/second                           7.83
    dram__sectors_read.sum                                                          sector                      1,419,540
    dram__sectors_write.sum                                                         sector                        187,668
    l1tex__f_tex2sm_cycles_active.avg.pct_of_peak_sustained_elapsed                      %                          17.48
    l1tex__lsu_writeback_active.avg.pct_of_peak_sustained_active                         %                           0.00
    l1tex__lsu_writeback_active.sum                                                  cycle                        356,868
    l1tex__t_bytes_pipe_lsu_mem_global_op_ld.sum.per_second                    byte/second                              0
    l1tex__t_bytes_pipe_lsu_mem_global_op_st.sum                                     Mbyte                          13.81
    l1tex__t_bytes_pipe_lsu_mem_global_op_st.sum.per_second                   Mbyte/second                          18.01
    l1tex__t_bytes_pipe_lsu_mem_local_op_ld.sum.per_second                     byte/second                              0
    l1tex__t_requests_pipe_lsu_mem_global_op_atom.sum                              request                              0
    l1tex__t_requests_pipe_lsu_mem_global_op_ld.sum                                request                              0
    l1tex__t_requests_pipe_lsu_mem_global_op_red.sum                               request                              0
    l1tex__t_requests_pipe_lsu_mem_global_op_st.sum                                request                         88,734
    l1tex__t_requests_pipe_lsu_mem_local_op_ld.sum                                 request                              0
    l1tex__t_requests_pipe_lsu_mem_local_op_st.sum                                 request                    141,974,400
    l1tex__t_requests_pipe_tex_mem_surface_op_atom.sum                             request                              0
    l1tex__t_requests_pipe_tex_mem_surface_op_ld.sum                               request                              0
    l1tex__t_requests_pipe_tex_mem_surface_op_red.sum                              request                              0
    l1tex__t_requests_pipe_tex_mem_surface_op_st.sum                               request                              0
    l1tex__t_requests_pipe_tex_mem_texture.sum                                     request                 11,071,257,561
    l1tex__t_sector_hit_rate.pct                                                         %                          99.99
    l1tex__t_sectors_pipe_lsu_mem_global_op.sum                                                                   (!) n/a
    l1tex__t_sectors_pipe_lsu_mem_global_op_ld.sum                                  sector                              0
    l1tex__t_sectors_pipe_lsu_mem_global_op_lookup_hit.sum                                                        (!) n/a
    l1tex__t_sectors_pipe_lsu_mem_local_op_ld.sum                                   sector                              0
    l1tex__t_sectors_pipe_lsu_mem_local_op_st.sum                                   sector                    554,112,044
    l1tex__t_sectors_pipe_lsu_mem_local_op_st.sum.per_second                sector/usecond                         722.42
    l1tex__t_set_accesses_pipe_lsu_mem_global_op_atom.sum                                                               0
    l1tex__t_set_accesses_pipe_lsu_mem_global_op_red.sum                                                                0
    l1tex__t_set_accesses_pipe_tex_mem_surface_op_atom.sum                                                              0
    l1tex__t_set_accesses_pipe_tex_mem_surface_op_red.sum                                                               0
    l1tex__tex_writeback_active.avg.pct_of_peak_sustained_active                         %                          17.76
    l1tex__texin_sm2tex_req_cycles_active.avg.pct_of_peak_sustained_elapse               %                          17.48
    d                                                                                                                    
    lts__t_bytes_equiv_l1sectormiss_pipe_lsu_mem_global_op_ld.sum                     byte                              0
    lts__t_bytes_equiv_l1sectormiss_pipe_lsu_mem_global_op_st.sum                    Mbyte                          10.21
    lts__t_bytes_equiv_l1sectormiss_pipe_lsu_mem_surface_op_st.sum                                                (!) n/a
    lts__t_bytes_equiv_l1sectormiss_pipe_tex_mem_surface_op_ld.sum                    byte                              0
    lts__t_sector_hit_rate.pct                                                           %                          99.83
    lts__t_sector_op_read_hit_rate.pct                                                   %                          48.13
    lts__t_sector_op_write_hit_rate.pct                                                  %                         100.01
    lts__t_sectors.avg.pct_of_peak_sustained_elapsed                                     %                           0.95
    lts__t_sectors_aperture_sysmem_op_read.sum                                      sector                              0
    lts__t_sectors_aperture_sysmem_op_read.sum.per_second                    sector/second                              0
    lts__t_sectors_aperture_sysmem_op_write.sum                                     sector                             53
    lts__t_sectors_aperture_sysmem_op_write.sum.per_second                   sector/second                          69.10
    lts__t_sectors_op_read.sum                                                      sector                      2,919,780
    lts__t_sectors_op_read.sum.per_second                                   sector/usecond                           3.81
    lts__t_sectors_op_write.sum                                                     sector                    833,749,671
    lts__t_sectors_op_write.sum.per_second                                  sector/nsecond                           1.09
    lts__t_sectors_srcunit_l1_op_atom.sum                                           sector                              0
    lts__t_sectors_srcunit_l1_op_atom.sum.per_second                         sector/second                              0
    lts__t_sectors_srcunit_tex_op_read.sum                                          sector                      2,018,959
    lts__t_sectors_srcunit_tex_op_read.sum.per_second                       sector/usecond                           2.63
    sm__mio2rf_writeback_active.avg.pct_of_peak_sustained_elapsed                        %                           1.96
    sm__pipe_tensor_cycles_active.avg.pct_of_peak_sustained_active                       %                              0
    sm__warps_active.avg.pct_of_peak_sustained_active                                    %                          35.32
    smsp__average_inst_executed_per_warp.ratio                                   inst/warp                   1,599,924.27
    smsp__cycles_active.avg.pct_of_peak_sustained_elapsed                                %                          92.57
    smsp__inst_executed.avg.per_cycle_active                                    inst/cycle                           0.61
    smsp__inst_executed.sum                                                           inst                143,513,207,135
    smsp__inst_executed_op_global_atom.sum                                                                        (!) n/a
    smsp__inst_executed_op_global_ld.sum                                              inst                              0
    smsp__inst_executed_op_global_st.sum                                              inst                         88,734
    smsp__inst_executed_op_local_ld.sum                                               inst                              0
    smsp__inst_executed_op_shared_atom.sum                                            inst                              0
    smsp__inst_executed_op_shared_atom_dot_alu.sum                                    inst                              0
    smsp__inst_executed_op_shared_atom_dot_cas.sum                                    inst                              0
    smsp__inst_executed_op_shared_ld.avg.pct_of_peak_sustained_elapsed                   %                              0
    smsp__inst_executed_op_shared_ld.sum                                              inst                              0
    smsp__inst_executed_op_shared_ld.sum.per_second                            inst/second                              0
    smsp__inst_executed_op_shared_st.avg.pct_of_peak_sustained_elapsed                   %                              0
    smsp__inst_executed_op_shared_st.sum                                              inst                              0
    smsp__inst_executed_op_shared_st.sum.per_second                            inst/second                              0
    smsp__inst_executed_op_surface_atom.sum                                           inst                              0
    smsp__inst_executed_op_surface_ld.sum                                             inst                              0
    smsp__inst_executed_op_surface_red.sum                                            inst                              0
    smsp__inst_executed_op_surface_st.sum                                             inst                              0
    smsp__inst_executed_op_texture.sum                                                inst                  1,636,374,534
    smsp__inst_executed_pipe_adu.sum                                                  inst                    852,203,268
    smsp__inst_executed_pipe_cbu.sum                                                  inst                 11,514,243,165
    smsp__inst_executed_pipe_fp16.sum                                                 inst                              0
    smsp__inst_executed_pipe_fp64.avg.pct_of_peak_sustained_active                       %                          27.09
    smsp__inst_executed_pipe_lsu.avg.pct_of_peak_sustained_active                        %                           0.06
    smsp__inst_executed_pipe_tex.avg.pct_of_peak_sustained_active                        %                           1.40
    smsp__inst_issued.avg.per_cycle_active                                      inst/cycle                           0.61
    smsp__inst_issued.sum                                                             inst                144,033,142,511
    smsp__issue_active.avg.pct_of_peak_sustained_active                                  %                          61.40
    smsp__sass_thread_inst_executed_op_control_pred_on.sum                            inst                187,544,872,181
    smsp__sass_thread_inst_executed_op_dadd_pred_on.sum                               inst                 21,262,035,248
    smsp__sass_thread_inst_executed_op_dfma_pred_on.sum                               inst                133,623,868,872
    smsp__sass_thread_inst_executed_op_dmul_pred_on.sum                               inst                 62,858,812,872
    smsp__sass_thread_inst_executed_op_fadd_pred_on.sum                               inst                 29,907,301,525
    smsp__sass_thread_inst_executed_op_ffma_pred_on.sum                               inst                141,287,714,718
    smsp__sass_thread_inst_executed_op_fmul_pred_on.sum                               inst                 64,190,842,547
    smsp__sass_thread_inst_executed_op_fp16_pred_on.sum                               inst                              0
    smsp__sass_thread_inst_executed_op_fp32_pred_on.sum                               inst                345,053,998,881
    smsp__sass_thread_inst_executed_op_fp64_pred_on.sum                               inst                246,603,335,110
    smsp__sass_thread_inst_executed_op_hadd_pred_on.sum                               inst                              0
    smsp__sass_thread_inst_executed_op_hfma_pred_on.sum                               inst                              0
    smsp__sass_thread_inst_executed_op_hmul_pred_on.sum                               inst                              0
    smsp__sass_thread_inst_executed_op_integer_pred_on.sum                            inst                681,761,092,394
    smsp__sass_thread_inst_executed_op_inter_thread_communication_pred_on.            inst                              0
    sum                                                                                                                  
    smsp__sass_thread_inst_executed_op_memory_pred_on.sum                             inst                 64,945,445,541
    smsp__sass_thread_inst_executed_op_misc_pred_on.sum                               inst                 75,633,844,785
    smsp__sass_thread_inst_executed_op_mufu_pred_on.sum                                                           (!) n/a
    smsp__thread_inst_executed_per_inst_executed.pct                                     %                          44.71
    smsp__thread_inst_executed_per_inst_executed.ratio                                                              14.31
    smsp__warp_issue_stalled_drain_miss_per_warp_active.pct                                                       (!) n/a
    smsp__warp_issue_stalled_imc_miss_per_warp_active.pct                                %                           0.00
    smsp__warp_issue_stalled_long_scoreboard_miss_per_warp_active.pct                                             (!) n/a
    smsp__warp_issue_stalled_misc_membar_per_warp_active.pct                                                      (!) n/a
    smsp__warp_issue_stalled_misc_mio_throttle_per_warp_active.pct                                                (!) n/a
    smsp__warp_issue_stalled_misc_miss_per_warp_active.pct                                                        (!) n/a
    smsp__warp_issue_stalled_misc_sleeping_per_warp_active.pct                                                    (!) n/a
    smsp__warp_issue_stalled_misc_tex_throttle_per_warp_active.pct                                                (!) n/a
    smsp__warp_issue_stalled_no_instruction_miss_per_warp_active.pct                                              (!) n/a
    smsp__warp_issue_stalled_short_scoreboard_miss_per_warp_active.pct                                            (!) n/a
    smsp__warps_eligible.sum.per_cycle_active                                         warp                         497.73
    ---------------------------------------------------------------------- --------------- ------------------------------

wangpeng@rongtian-SYS-7049GP-TRT:~/backup6/GPU-rendering-programs/64-Film-grain-rendering-gpu-sample3/bin$ 

